^C:\USERS\CMDADMIN\DOCUMENTS\REPOS\TMP\PAINTAPP2\PROPERTIES\RESOURCES.RESX|C:\USERS\CMDADMIN\DOCUMENTS\REPOS\TMP\PAINTAPP2\RECOGNISER.RESX
C:\USERS\CMDADMIN\DOCUMENTS\REPOS\TMP\PAINTAPP2\OBJ\RELEASE\PAINTAPP1.PROPERTIES.RESOURCES.RESOURCES
C:\USERS\CMDADMIN\DOCUMENTS\REPOS\TMP\PAINTAPP2\OBJ\RELEASE\PAINTAPP1.RECOGNISER.RESOURCES
